5000
550952377 694642484
617839386 189021000
313082923 821405548
611262173 41210531
782008468 264192066
323132028 55590795
612250993 552969997
760968129 776579852
999759619 972549634
548237845 398416763
452639430 835070933
535587900 426156328
404876672 386449887
656652782 802566918
543341942 939790503
914631876 478205413
353519342 186129443
578399787 907168614
478062559 229455749
704282373 630001246
544305901 840571938
284266680 773230999
149377827 396839765
308528983 858950662
820171514 677585730
233752934 808233728
728730471 342050064
444313533 23106783
15875172 96239655
343152206 551202722
887950278 209019506
646449031 972609190
403477802 795348316
862806597 742595319
216799139 744429893
471972666 316183251
435728355 618112926
636301680 816914305
545986281 799130565
551773973 576099434
445746541 44760179
696014626 202497756
44536545 899723880
955153625 936874981
925235129 604888209
992824109 768012314
934279564 306488836
670546343 523977679
682387293 321083472
16849085 77261204
868690602 722277297
930660954 681959906
45868666 220205757
632700772 709968858
798888142 560649947
286832058 693364782
110255300 597661931
672211749 169874535
70514270 913832094
331771469 677626599
116877383 254504671
340122131 443192109
789384638 21642647
639678491 816742440
690848112 576969014
230096215 437559502
814071484 144626642
95611294 663347730
892239190 575714952
520875935 907179527
887022225 343925219
717168649 320755327
265689936 339198268
111642302 451028741
734163409 1336642
352272062 557111444
679164285 783765669
541931736 259470341
759383568 711726349
469925532 945094642
277967075 790530809
348520061 735690125
280915172 696852222
925098842 61250637
86307066 226674277
397253637 839282074
708746298 415016456
825053757 473760028
40931557 811862393
327407203 292530618
205282966 637816875
432400998 475055817
458910883 880965457
898362654 775857332
591761040 572103917
164190979 430258704
826624501 593398541
340056619 31500107
803864948 506133528
490046914 536396812
535818648 116707656
60416266 43625859
613259287 334748689
408581522 212197173
962312241 470043089
586640641 792158422
293270553 26322236
315326723 24116672
140224093 34876694
748645573 704262949
10503181 231548159
923171258 364168738
568638885 38550725
673038656 196743001
851537421 378693273
81391027 22508521
901888764 76940883
282332764 310948971
235000620 602058564
485500517 382511155
240885442 616361431
168402806 782589990
232844002 845844228
697642121 76816141
667012382 312706347
838485626 751299031
174473202 526511526
155655876 262572811
538950310 234925163
419862261 490946035
896312547 960715034
175613617 21911864
518787467 133247077
943903454 131843582
379206927 705656453
958766874 640577067
791861433 234944340
384572639 558278917
852084672 512919820
832592914 390697090
208874511 41419353
499785690 437632028
238796133 643226852
867963329 347480175
99192580 349560495
54225713 246007153
889744997 8600383
877314625 939185716
251462939 804633729
161281235 758179124
254509724 97199608
537469985 777154194
11892388 625335764
546896601 220366719
87069782 618422240
787933839 952808796
83616968 363747756
955389978 863174085
726570253 423531234
80197976 600034891
712028410 900862425
154812322 86777079
601283605 182043664
977240002 612702196
400580532 999583516
720540318 876652705
720160705 877326998
129294776 110028612
754257543 324938529
867610611 466466001
271486324 90809309
499798399 255875576
414362465 326821013
37806494 357574831
305282791 119528960
273918745 84540708
228842294 635435177
999722642 558753961
674093817 561764943
30232242 704032057
707622323 898619628
633665488 344994541
859950699 153543394
645879803 285348671
676526020 476804090
152305548 721795532
987210659 597352117
804808023 4127920
721194476 117375775
348673665 535583599
868596392 362025683
763800326 791485461
198407754 557072170
454172211 194030257
544696840 466533672
134175499 295685180
618341995 224026775
659901801 879664979
276890840 405208786
580658010 619476895
374143672 530928069
763882747 754610526
696099802 328713256
789318508 289520664
646443224 170908675
591118987 638022989
428631996 267878209
321688354 670051049
592152619 174731936
935412416 663616616
85765026 885105059
143329676 12694048
698742361 748830715
687506934 345880953
911269884 856733109
225814715 868625904
767591276 817156813
600890478 874378353
338843917 587859888
115495761 331705472
544742296 236797980
800163465 193037592
265693792 269457508
224276430 715405412
857720276 416874463
244127120 772506807
885777069 342394143
313137257 373180809
759832143 979984094
568515602 746934421
81284597 309485909
916864136 389852194
378679801 52795952
287066418 850065929
895427949 940102743
960581284 900042414
229067706 383693337
641511870 683010458
166774905 78120030
608772714 365376736
474233027 733589442
599381078 698360102
111687586 495236849
603934170 407449458
126821018 690718444
4269392 761621307
395926092 646994159
716516666 596894238
970281874 207363901
290838600 233755187
103345575 169773493
405208878 954179365
198999831 578105151
377559721 777578798
465408694 514381741
693976975 297462229
553068411 731610000
535278187 923604580
807362874 607126420
153878375 10813028
615946162 220361738
166420884 614093821
477328225 535970682
545981349 284293666
272776260 138762842
647302907 782011670
619446649 266618431
157883433 850721189
544125815 642453612
548936984 382363861
878517843 545517630
350264524 327518916
213762168 366812079
700668752 794193972
133915716 340674507
979123633 553661700
440840311 869050729
249625357 636303407
289676236 511111085
134296150 382322608
735366419 796067907
844606532 859699772
82277113 143825348
70155027 38712136
946130624 770519540
719681327 617059286
143811505 750308690
439083474 733355161
794166513 371172587
305919181 979584551
667760016 602738554
402417896 916329722
628088281 178759343
540346095 445776995
171739121 938237628
371776494 552012377
801800669 370535939
830979679 573135329
402247413 559821658
231708913 825444696
805012577 990881515
59294458 886948606
922453912 906657677
119099863 640532374
908291601 552777734
616865834 127074707
623312034 692961802
633437777 693297146
448591818 580365307
493212808 918901616
63395979 573579597
44434624 561810559
858891887 6038719
863916431 410058085
489782433 972342737
551854174 521221038
354962409 212197289
712148437 757875943
367626268 318617880
417461577 652210035
448113677 98000463
586180203 987765074
667862025 770512492
1935265 79076537
179133323 744351630
510093367 523996735
341351244 288588399
879404236 696840333
172822134 758977057
563764880 817691192
629773554 144709397
853919550 280445180
102274561 761901512
660816304 587075048
576852828 809239201
783777986 472848616
281802395 685289554
626916614 356833466
504619383 97974837
431020098 249770265
904527901 558538633
590700561 813998435
178472296 128777653
737127041 107158140
113948309 683462472
16473981 552145236
107605203 394889765
90548597 472405879
59542053 374986464
898948119 656620046
142650812 295986147
368901303 669108915
404373319 30679023
380290147 844032891
616109271 633894947
776840550 907439112
333860784 996386578
422707840 657010974
972506916 637638320
822117152 861523191
336226625 113882021
643106397 212976470
813380405 452866364
688654563 221662
264804376 509504566
809411104 471351691
36891313 851478212
677248509 301593863
779618528 712890777
707436960 492220819
974048746 41032533
808966876 833769731
67013323 60205585
584984863 984037589
417786581 420363854
94694780 228816876
119331081 665882547
195109246 880455220
370586039 234724487
152409054 419199416
16214690 152590686
679935100 912539913
977486442 189752057
685055435 956953077
144452126 822713451
744670392 444091585
366843940 438445848
720021395 987255224
733120706 138397326
589943148 797456436
992550987 172312873
456007455 840751752
961525352 405400181
336185674 102440575
649087990 549433452
818632264 806683130
641830849 131819772
53044828 908726288
656419645 294437473
590767328 990046106
899640321 127632901
45576432 558075554
569517586 409042609
670634678 233634352
155110860 371239104
120523262 125137184
930059337 430751901
560043636 63798834
821647395 387475912
228736584 548851719
5164447 509885783
410424956 127752733
768339285 380529477
207411908 342251241
506311456 297344558
552433346 140582019
434039216 507491292
76687545 58667071
950018574 248220472
252018272 282271047
584703919 811328368
377215602 526515427
794341017 993940194
57486917 167331754
775108992 673547589
669433507 763157834
878067234 792180768
937996592 642755020
854736009 129447919
152574733 733801584
418086200 206090383
350616729 114813126
86392881 485029808
364472128 58587314
24786759 609885492
384997690 505785730
593295668 407354733
945546271 649419079
439860229 30318748
938268770 284511287
811322359 141619929
660872767 265297645
530008719 683852639
408368994 781494884
598623075 737567641
208313388 810841961
839281860 877776435
782516198 8969454
345001802 776037877
471324349 604608697
588723613 523720495
831352603 812916991
854077539 20600218
128901821 682483298
292979817 222560470
344347445 400953363
64284416 33441259
554696231 800162891
278974998 843302913
236946372 482646409
652041205 22941363
898007699 574850165
926603797 965466229
613930615 67836928
745163264 5284161
964356839 153809905
865380545 83848288
231648863 717628747
710939281 769852925
139828169 271641562
62100500 381315495
835223705 559459689
945082257 281950716
788929017 957405962
735052390 6939845
543672359 942550388
110091793 857396573
465418178 291609777
739161097 851545864
176070634 59110082
581204662 214062037
35459940 50557161
862192727 17483673
568705177 259030731
317854859 221800129
163540938 484766217
917122610 240609651
282613419 415729395
26949333 404957825
242970537 420098275
949369503 795589662
69820816 739459162
427693272 516537597
141671038 603738239
606217757 244655435
368602649 325571541
632538131 787835170
576415739 898623857
711209880 807786477
680899768 273531705
166882514 630350996
8560584 85152887
258459980 112278778
957627691 471870618
241331601 301139788
3305736 776702787
274158650 166966917
358700874 120795472
884633958 897175003
896273383 831853649
659961188 894067624
875065634 309523739
358548269 20549001
905610358 237197064
510415178 683102057
490114957 875157797
748045090 985644349
118301272 178796855
242781268 168135323
793236320 824247285
5390155 2310731
219721156 573967330
336632539 459946243
644614594 615217348
117198408 3032244
892591508 75625704
550156752 215107747
335654153 904196815
857904168 800726252
782420778 658464753
685502804 466201287
566612680 71295305
18907860 434040032
9103169 462922778
660594370 321577204
398135205 60474908
250154326 332311336
770617901 354495807
530951570 721901720
707175898 710072904
162876554 565609403
503357471 42577585
717938124 421232358
493398347 493271996
622077648 468978259
422553655 531608890
283542613 877535702
612050976 376000737
507169629 187147194
908809102 344451601
619535949 667577831
576825558 671089323
381541525 583006344
354648541 211421609
441934103 157073590
336570223 849424905
835509547 526102124
396361753 436179434
465751831 130722556
468812724 490509704
162731746 369586481
450817349 345264128
335080096 969417179
359682746 92723638
446300277 179622996
707447274 729032245
149276996 985072210
239821475 716386727
517636519 685971275
370377136 148711819
999067787 825723447
914545483 368321811
855847869 211284548
980668602 855047305
810449282 555523307
132911141 307466722
81290850 29349166
78651863 362163740
564933528 639904520
873002904 675350441
84798537 950445322
163183188 940921487
262496381 241953289
642348645 350556365
371571064 179349863
635227778 464846195
879188182 926560845
732983322 237881066
290559854 475889091
828349568 845072003
434018903 919066095
705050236 234504385
502634968 236910612
472036352 125041400
614651396 781890950
257649697 992562837
838049353 829837183
727435995 174891598
978554210 348578177
536791898 638226191
323229 241551970
716014441 790957854
252107770 124439806
421976945 576118953
181122337 583581229
362951580 775167951
350902794 331474893
222007743 238146714
883313139 273664329
588919563 722059844
366984138 273358085
422616512 919043069
290001654 57328036
983570124 255271333
629300277 270317726
861852590 349994673
516075466 634366585
614605295 445216062
322130534 786768339
271176177 627490664
339700058 651195910
198828755 659421142
938344937 220770300
861617494 647830645
439894852 332622403
620992180 576093730
523154455 275623175
224736620 92151261
383421836 308858521
878602179 588959130
289032742 65254082
304361239 20358903
647520473 845017778
591864811 651871033
541698509 52883062
251081671 950608630
486933162 811639436
980449890 731122276
229023819 308752135
613767676 81756870
904955944 437279328
863454282 871783638
438266362 872556706
825192532 278973145
473579687 325622231
110360664 214480287
102551299 241467691
26418380 908271905
882843588 926980291
178320075 949464364
577203975 924734745
309213784 551981227
622935319 432607381
946223696 293746487
887362999 622302172
421767848 790454251
603275710 662073820
1620749 393542253
617426490 479771375
631413537 929373651
383184754 916447460
807777127 657505640
311518721 457485265
401580579 144112378
186191258 999721947
232444680 322238180
214319349 385045793
546050697 275977694
506537623 153095122
482840971 442297244
364556114 194644073
814463395 244866557
430994072 427502210
600177830 413926320
800627727 786065647
259979046 67673791
375190475 694051149
568154387 178164308
745224398 334023595
327285410 295730149
366373595 935702075
920826065 817959417
98948098 478411963
902399814 911438415
251975678 50765866
337843693 159035450
139771613 671092784
387501972 237320599
153288089 445227103
877722063 100731164
193088933 693385968
9584298 605629585
384803816 52831525
363774622 233312794
31405313 314172831
187589552 581456849
41744909 240265921
122379305 761686769
751217366 105864032
465113279 312175430
427803381 283879891
147320013 506993380
826534832 311425468
389037560 876776120
778031135 125265503
80440594 3776728
840091584 32371415
610020518 272071509
10514108 636862513
928271467 164440787
881641239 921836046
184456541 636467109
925182448 452824978
218098041 803674177
895042864 286754375
786977667 483818213
452158637 873015444
684924729 322422358
741087428 431940098
466306735 617403618
854387109 800697251
296133549 535195448
851196029 700114061
752407961 583449859
760826054 744520211
779471091 876628047
785584405 137123335
862054181 996635655
188902922 915233097
420672641 384311482
450287124 131876265
923545671 793320629
353323299 97067562
739652161 172556566
747166063 514691022
662565542 324522686
46816787 140010141
711843035 611406675
486676922 287670262
989995533 13943963
736927256 532007874
612066427 177788980
381940749 130507931
604787669 728809029
981989474 360941682
95908109 607098681
496780394 133264567
49532634 8980104
379477444 272833750
38368427 133986433
171360552 727696814
267024557 437213848
934000386 516250605
703813600 445882795
495620021 533656448
998448222 37180854
332076484 511171776
796406634 229487511
411459154 407719038
423691126 722651281
463234631 85427652
667050859 400347282
40782791 443577479
526753738 302687210
958444569 613163002
737736959 229942037
881738357 268074817
210712653 177189494
248979288 646141184
318338890 12485404
299656675 699406544
814016018 314563518
782903168 730388153
331530272 567184456
29109743 301358688
220587235 333882026
718576105 163114305
811467700 181069486
155215854 339133123
154140599 843735016
948097708 536235613
639967983 678621604
331784577 901439417
247822276 28784687
203827431 504191559
635379502 682936271
827065137 190640820
223999903 175691461
890164252 634216815
217865223 157001912
856061927 778430924
126580975 722970374
362688663 71840489
11681376 876305547
302487811 329331436
616460783 656072901
735867917 822644830
941565901 787741210
938316890 944907850
315533791 520866722
465241088 216117553
817655734 304788174
992124685 560441515
715962389 539867390
386646326 743084500
872167026 399777422
583096048 539975518
644671733 45277573
54013073 717053305
633510146 930450102
460557128 797426853
199187787 324886382
838773633 511732445
51157997 845197337
3180001 423278798
207510405 610256458
713104576 939360160
988023906 833096737
896978479 59785473
444917749 925099355
687693369 446304584
555325395 38425859
98048844 814990411
938844939 645281432
20657963 895602718
721321503 510234875
557211462 308721072
640539242 602296962
154936708 653540693
667153712 618665629
583618049 172897622
233978444 765811446
49045646 246453425
320415330 973586271
129695133 976258713
639327514 668230761
258529808 119890893
315324279 610957052
439879673 359345760
310937053 287369676
938319920 106382947
512710385 430545987
785301404 966568056
54566987 733911786
71933102 760122345
457536931 83572646
311318310 739907044
907945588 292683703
330599317 844916877
189862638 97479726
298426284 112716382
597961042 672996313
187361930 84002516
293232497 361675792
612617846 887280424
8806016 750272215
800978098 692240686
49134430 913238040
122622021 571331633
680270764 774589327
439915711 538279648
348280424 883333747
990980974 877968715
463912435 451823818
177389647 820284684
528723237 144203239
794788552 760881765
275705228 765521577
856715808 71739818
772752077 157772655
500992748 807062347
729019826 19988861
311588461 824729901
266761202 551416001
316548467 735409322
256917642 631648232
708590542 156311216
524837456 911087323
948453461 848771286
454134317 108916130
316151394 480968035
139533966 892473428
74758996 704237936
763956364 554547186
437764839 237018880
13814001 324221871
598867533 418072049
815294317 565351461
403000567 452411918
99760317 538458400
152490991 532997973
302986806 112058248
402296130 337970661
69756368 10118053
561434037 898743698
450930874 557157298
208028262 28291177
56059715 750399104
763692684 265332038
353322144 175930603
719370766 585104692
682803524 813847563
293924140 588752752
476570317 250980525
72567076 161955702
674733505 470037613
557333716 742644417
361671120 153230509
620478038 873653572
26092099 597087829
502179336 457072752
648876615 817181555
693332392 680705020
493051498 820461647
474426649 927101310
653627749 731437446
978199898 290734140
841753265 699987675
573445855 72623116
76801515 697260712
625852160 121991622
324493160 137614990
858225729 989439810
720401875 433561925
506054505 924187877
708599394 181869019
796462915 164054666
66922456 206559181
608678033 34901086
233218809 129991204
114060801 515776040
558931958 364195541
3779927 638637152
472469277 91911930
208134320 711352664
166419993 408583549
390496765 126460103
499529154 649521470
887179910 897649699
517422896 616460636
325889684 399061270
417465389 875389979
327343700 181852120
992734475 308738200
274457190 772263138
948207419 527811530
801601735 675913321
826381913 707924086
709113092 698667412
791579345 708735771
331211456 965117907
513680271 587160369
879866923 428689174
858373909 71430819
265754692 50168411
784207051 750761660
460940928 948871555
950220776 949034343
437157958 466828808
52864166 343415965
129253631 825212282
600494316 790632851
360404829 861896207
954401951 901505658
646771603 547995151
395659925 365653048
432493760 259466284
517656140 873556403
948381465 8591464
746260989 692173906
87278973 674189580
983861674 673324125
688294581 777398547
521691057 981890950
624916059 282862129
285623638 69319825
703851247 481919495
396140171 431591198
858883955 799720484
105794191 916473110
523667766 480208866
674949056 10738283
372695343 875070171
440077353 854411363
770601644 123993843
27560190 298355492
397595500 373364382
608096998 27111268
444686325 14896815
774536904 636226154
939524472 875315238
663412239 520069671
285452216 795643094
645773226 243545950
24288119 435111718
354128826 513063984
740160809 136810766
124437806 425547336
619723720 191071623
816460507 941359397
924213636 747925660
894110474 762655064
398975215 133906705
768175323 210257971
316065481 936677128
239466676 958302799
647739507 713435244
812669066 192114687
408566261 926753780
600738379 874591726
777574389 2258809
397797578 691728815
982249738 316580504
834045863 276656492
114292759 875189767
414453154 867016529
92188435 686547414
798335135 730081522
44443339 577755523
834413346 474729739
847953587 415673799
215816412 214122425
494210442 184963946
937791608 582658685
185703690 136255935
435411369 347966397
226437643 364538759
594953444 279485757
677387207 824521461
73722012 448363352
675263845 861726078
260969932 658802388
192599214 613920036
763590564 622897055
480101879 218890856
415730131 499195298
714031014 568753720
71985003 502820342
679442204 212686029
253058144 711524298
232307922 715980047
212346781 526061017
745750170 179365393
699618819 839950372
918722852 597105106
822778906 494417121
323747105 570393560
433496412 536271926
799814801 413279162
351090290 203885778
262715811 304842402
895096157 517791839
101751857 629451926
667471169 156113074
40375549 172257754
528159399 297307506
287679036 256715159
869055361 585799556
323102383 799761977
53168943 238598721
859965433 937962416
913274719 808675172
454622888 525983804
841780753 198509900
364661903 200509209
54429815 347417012
997680936 424183821
66025948 533724615
265927160 139150508
173142334 437034147
71557044 404628402
676979288 162931572
522203743 166185159
868540826 665068156
60358885 785997305
444988449 28735999
738857075 960824628
373879163 323515385
654890619 708065252
154366806 492779007
834319673 514019044
974028395 162609347
331084488 885291267
274412949 896148081
196326960 781475655
881805204 239760774
973448054 255626803
341980296 129089343
493560453 677335578
532091648 324532454
72740749 736902013
57948900 809106795
312054188 739259483
263390348 776948048
605958906 948357945
583925699 510286132
519174330 120702789
425236919 563072323
72409940 873870056
999857479 831173373
427958135 413992443
674473486 589687927
755339330 842614316
719804092 854685893
827184066 768268866
37594361 225741228
413980900 747012644
223718577 194509744
835260942 333691505
826934429 443034356
274171016 92709922
38852213 905430512
383425187 1398072
880125553 428408266
359203363 375864980
3769360 350479203
432757172 4964681
425799800 631432547
667219560 947800639
154180637 238808337
989427967 538198503
39931611 403923057
849902971 345852868
429493725 987487508
414399795 991242432
337112841 282775096
347693713 600995476
966677089 777821128
395434908 448909112
464287643 825182410
3938941 68475137
201038480 239715937
883544221 610997891
121542449 642695578
716961829 472170144
607599816 742454989
122710399 953192457
140120239 166096318
658141944 41868824
274356358 882160255
53459132 390977105
751768435 115564793
339234819 523891989
223546704 204124786
906345810 400979088
12490102 60845168
866650725 638752756
690006649 759438026
902540612 697297363
925565124 196993497
985369687 806759921
659924340 702256351
909062375 227325265
458551504 211893988
144715737 370411448
513665788 609039206
245883005 31168169
981147386 994458329
527148311 811034810
795784680 416175566
477849131 204567825
398261007 826164795
659722953 240528741
771073354 932865046
221122473 389465364
371910910 753676047
110314377 789875972
664612657 360819638
798707231 434556704
371582035 154984425
113820388 503520061
294110003 311932628
237996899 831410390
751077362 429299232
422605929 972079705
175349472 36163445
574943044 417272431
792082870 254152502
654156587 681873178
52643626 793757616
930217965 953512820
439885406 152834413
391929469 706340127
162169326 566500796
560118048 72041602
875897642 670467847
976433204 673239521
864644991 352115176
228611898 253584452
571328424 139845635
647280782 582718004
406012548 537125170
116250081 100661904
184882256 363781214
581006318 201198565
32342812 232584835
270780355 787342189
650221735 7190226
820500279 988715538
8762092 243653015
984363723 407557794
411500378 860294445
658869235 78588923
265518238 570094665
400671649 620316071
330537693 528320993
23046877 822127669
179851658 672162221
13855929 760743272
40685328 432903186
407620824 323200224
165391894 599273733
558934904 447486862
966522103 868152870
347605571 937639895
439734211 965229864
152591923 314641196
363375427 546680656
763944083 487096581
835854997 128678341
966200940 825427224
860839230 913274762
343167441 681348877
856827745 618271561
290420563 211175763
424511208 890528339
119396284 930919062
332585021 128664044
563163392 137215138
812305240 179896816
789041560 651689769
966064810 43925514
958534166 780902211
711190777 197869899
983807260 594660590
535037009 743359519
666448789 891893875
687573512 865872170
998454184 787719370
487414404 346354769
144135541 298046577
656192565 380502665
2837818 843174971
551990090 339370755
724216458 210214108
920521037 980540985
441353364 2884672
293613137 423719657
956047165 505122340
720949801 356752503
156555141 333275237
609687408 982554510
210001230 645383641
442553665 593035727
351901529 710283918
553336490 44585151
101794082 123760963
115004100 156484285
125020718 749326003
176631283 862531040
706415955 498441843
588230973 346306633
396374235 76534046
897174551 883290493
648017237 352185206
556433091 835527679
57467902 152792150
391255708 714662693
773160554 393057578
65697555 972347189
108508407 955801410
771536019 281117743
343419388 371039429
145773341 142348646
410089201 154285199
77379949 605334992
417093162 113711132
477086531 345690082
436480108 702123525
663592419 902704735
269714827 817016498
838284437 44248514
137673930 746522056
593801146 707974301
528182525 925693389
721514361 432087710
509233299 972372877
304130976 142057474
131904228 53101669
852711140 127325296
621238943 471954138
323741914 396729732
639914556 298889753
823910363 180200682
369143632 916143854
698405758 269433368
309089061 820461224
458246238 300143316
540402560 346039860
229837179 452531997
36721488 300890778
515484080 439894915
557779139 172209128
59810512 813610499
264221417 111852488
669777611 447561166
24423084 463699665
731807587 984502119
786259077 389683805
166700326 650138947
658292028 211402173
5675083 187084843
128113839 882711394
49679782 640676488
392417213 907809568
803267165 220155306
447311711 538632133
336659933 40040430
105347309 471102528
937816135 280392236
13571368 778454191
964479936 192242880
271855919 519622881
537443650 710005390
896835696 634802682
963923447 585225864
296834964 784232876
961877502 411460182
350160931 914392549
355041209 460927448
205310927 347807770
884820879 357719047
805021937 646664885
647996039 740193997
416426161 607900159
934463471 400402324
998486202 957806247
151301368 923329752
304014323 182548530
740871116 868870470
132208127 121066373
159617982 164182641
266109339 885487146
560586693 513162317
869315253 883693097
311776125 404932454
775520241 810884750
482992971 803348744
321914122 986048266
47203271 236374005
256768751 180477786
600638868 32378183
101646713 541220529
468997366 677187881
384037298 999207529
257805647 743900924
15521833 462629061
508593150 774846716
246641309 941180692
188347944 573760270
515586489 133430042
137636722 487427187
449564481 54499555
601473091 953894572
318840776 236642461
137211450 882752360
514435671 841192015
506870327 30409272
460745023 161931411
268339916 524693816
598955995 430126452
419495501 7469434
350730929 870998428
910038709 528923516
593446798 190518167
578000033 357811599
172495519 918645530
312193157 947139465
462154759 631463496
936966483 182254085
129404700 771803319
735584318 185999078
526468633 958095656
553209191 24367509
400779712 484338896
423293688 170744781
160128959 48778754
404996114 223657018
810426793 106780699
284292758 227090247
855548421 953736150
650881905 718414541
847601811 945956733
729981250 237189736
525734119 376369984
119331882 504335224
693320307 664382877
158490925 951469613
636547629 66470854
78157336 640985450
685852227 917925530
140145430 754033149
813611619 2297608
679943999 473026259
728438524 396707875
616246484 761547705
33077579 830943776
107793990 508472271
492591022 634073443
608786883 491771679
584278716 618447638
777695524 444765032
865644439 325558519
469332338 415648640
447480759 831935349
727736429 828881860
587469628 463110688
522744279 731456053
984385494 314190472
220572659 15702016
249981885 168609139
284702123 872993685
305634225 14227016
460721463 626266438
48425190 477461670
637197266 726441747
887827428 956495318
759388255 793304853
253401144 406006463
305053356 144956310
588670212 688100633
99745346 615188280
729852977 488993677
720318339 968756664
318521524 707567793
836005858 806768294
121174462 633228146
952033765 181905514
317469662 904555509
93500679 246905446
908433636 949806645
724506762 493906151
154250390 256124482
200558009 168714464
133263274 652069230
783794849 852162970
162692149 110606862
552888412 196014978
746374964 689267886
116463402 106619255
554432219 530242986
917501267 703871867
82713921 856282357
598749085 959149728
824796439 404040893
705503185 80430975
386540151 621248129
978702828 462962711
756853440 675551624
895786632 928735091
542360998 384020104
262154646 435970997
728649944 485997742
111182770 382657192
800101617 62413384
787658334 598449572
807383939 944813337
319035810 937819286
431190457 896799126
823577557 909703846
969932132 396571995
181838598 263184390
921987832 171814296
460759804 75762784
533266219 447002877
28621565 612185064
154475753 158002494
286775204 872793358
952558335 72188760
513852877 670595881
124641084 200871187
378728758 320060223
371943694 354723135
572815543 667508572
469383226 916060502
560372066 114169590
532385286 118649504
315309833 504642993
398773180 636806803
571929035 826410510
902550547 291777781
797040419 485429309
373322822 647966097
568910992 893077042
981953027 9554192
765017270 142961983
590928746 519076388
861939158 948874383
61129463 721804955
836985005 247110959
612791764 576036127
242274474 611955295
25086698 520374601
17009250 164340662
389108568 352395097
367419232 611804876
376941009 137811846
680171351 828666650
825351080 710499300
348778104 206717586
404827767 440177873
63081324 48287806
927435845 764109111
344038171 864779579
486177303 97038516
567562567 458340603
722366974 766465689
824642642 718841998
265245395 485514741
406078746 287193144
772432651 753191820
63576949 708575042
262732093 582951008
840228320 707667138
269484636 626768291
641804889 820983838
949642789 225368896
241812525 294667919
139165072 210656728
383867873 641006853
62829569 352009566
391517313 502110893
867067464 271400087
876312846 945028613
227364425 525781714
794922271 342842829
276905518 498473256
217445871 308780810
422151784 57672935
720196074 878845366
448303361 93652742
615954207 411388110
692313169 655089983
214046409 112604366
478985495 633977445
975465450 497021426
138271255 677574517
80602183 783100876
734828757 834889955
46910527 890150869
946100956 650515139
620295550 793978844
936493730 154245430
189115167 468639650
24207032 637607974
513587217 602022827
559825574 452622363
358634552 417336883
122913370 635824735
76925664 522764873
120539142 608585470
411450471 499557151
624649821 825560765
278028166 49469888
10728766 271617890
318036569 99695240
176992139 756871201
619650065 617440318
733403373 333875427
196923142 342827421
417713630 948432236
562889986 428993899
389609280 95817250
144587563 657711571
53181912 844921506
866841296 934704253
398555673 744740923
82165086 800719181
584714181 350237203
901560274 720642338
413682978 573181849
305454234 543819978
700445530 979727894
274212912 249987851
698209480 234147668
167914387 36219467
933609930 229542935
538576909 476018805
209240954 825146715
352009230 682295395
43356363 260463584
826039534 211061566
165451629 532836461
327310223 257239260
318674317 806053624
939819786 883259652
992813586 663689793
305389646 487748577
3709239 691228273
948347384 758803410
299200788 807736600
853452557 785305149
836822560 825469615
70252960 212802208
571566847 625888902
543988495 287244998
301530588 600821720
750839542 489626411
943625661 917016766
182232885 438584660
793063611 851002063
792059205 301096571
335531033 234926665
843588012 489689775
240357758 26865659
868915530 606184468
639728605 739035060
278402899 55126370
650416432 950655664
655195838 388866825
235566898 196821450
732952831 955830069
273631061 470745210
510563667 446885253
108635804 514785023
689911408 883562004
145125810 389299238
369003409 229216480
398438559 330968319
816615003 250541176
23539947 542742895
189214184 768136319
726506783 493753690
353025604 175557750
824663644 291500994
552992799 993792
161536667 482854600
349072796 43572078
462556444 800228101
323202018 792237823
159232942 883850742
488955500 709572025
778398068 253464879
361522941 462755618
959885430 240297565
21743348 477937538
190984809 774875019
151436961 710759142
657056192 659026097
115109876 848495936
552452494 70472922
103771798 168994483
538508041 906337347
549002425 847426692
407671764 358387068
220154872 537357837
162244162 548574218
190376590 653905584
679641479 933731456
719548767 136220766
601266129 15826923
89648736 790294998
155603521 514599793
218228440 533892526
306556312 819938704
775470963 568551465
183918312 185080966
709332625 756716591
547986921 117358965
922029918 986066973
874359004 63034070
828783899 854370470
813071361 681615556
379925814 584155266
977458913 17711685
79217399 623528720
276270647 760329554
823339268 136224948
692516328 166268440
964969422 581317383
563480489 287081637
861474294 574465421
362955419 667654102
348044418 434788955
724862627 90410894
172920066 943802420
948908854 382709799
224839968 339326694
640256492 782414671
754762828 538459898
221207206 832767298
616757657 224157291
66122455 332093921
429628914 219699619
502463714 651526273
670430596 592607248
50169669 610541909
929899754 862458032
369145110 394805597
861054752 166467978
133504397 278532799
603597103 532854337
891083969 739041408
714871371 14291603
362419337 474489443
793375675 3198774
684867780 740910893
562105054 592337980
482579953 270412906
483108395 176982834
446301289 791137570
957848379 154802838
337873745 732008983
866337312 438957299
162203738 993935806
818737234 632301534
211726109 50454152
488607945 945841504
572212277 176295128
406836548 672215755
696909695 478159558
499718900 88166804
947668143 736854023
525775936 719809704
770701197 598856733
694911851 696963632
485784821 686665809
918946788 848340162
783865881 217253402
642370441 946523905
295651801 818844028
83216192 754638506
980578228 849296741
483268118 48558302
597347909 773180390
227198492 863100664
115799058 671910475
561732040 41053790
223242449 385350678
766722704 991794004
496307855 519658794
641590741 454462042
699962493 315799662
791263909 771976554
824746471 37675445
973211299 906267489
379576150 688358033
555238750 768811064
181148308 291668697
609470758 907890512
849636441 891457687
756634398 333832184
712910720 804839281
432336286 361392589
869671788 651014872
46441363 796514488
555051661 423558311
427033694 65479686
297695262 245198047
395631070 629300840
17273618 158143124
152873272 814814609
767069858 76395469
921091959 200474356
135422622 940163332
233367413 939066742
826999362 732443766
717430674 889849441
288700698 526092302
871578867 282508164
499121586 467781756
547607028 499647346
872173756 126469785
213226400 266958443
185652686 225218752
941582510 166380571
406608441 709673325
121450436 702389388
518575887 804957170
320623630 670133577
673206795 305445632
117013821 224361303
914609451 390137952
680979918 684772315
880917885 77720642
220340307 519735736
133575905 163554213
892288442 386862759
46455053 521609994
718468607 31971342
14801934 885744410
584776749 782469698
489598276 514342874
204169397 688419102
540369593 820623553
499481132 492570574
993298160 502330955
344064324 661368999
939468560 407477596
614213371 791588168
111560920 134901796
185531199 451984255
232415599 122300201
382156474 878319815
300627981 590050906
63199775 667342528
757211673 989344535
971129922 557408127
525045809 730249437
426776277 439323541
35253980 102208250
394452713 563834515
377810754 511242946
671974875 389306554
776228190 37891230
44343319 659869282
77188123 866723841
700053781 736820480
205717404 580728559
615860496 397379536
868420808 267129978
847579139 519419487
57121264 845760851
629546551 703806966
807361372 391031453
352396525 740408734
824099234 100164807
914015931 940098541
689004616 459945719
420450742 26886546
63490976 70917357
170034326 971415162
861387421 485766438
62392156 149704828
493195993 823092061
308222711 492782085
432291287 657081708
680762226 940394543
831270824 486719066
494729288 641464095
778098786 413817653
420583542 100108595
477501020 415594615
7189872 632136633
99123497 115141194
478500153 660210640
369794454 444155268
943490995 973268679
33370705 725113907
594083292 634113576
621662967 950508113
114130722 239304188
469372477 744117254
491693547 718218208
78897152 901588575
31371691 734821663
143124229 773155469
630085321 612123938
765159302 493245491
599956982 515515710
620055716 866091146
841850106 119375892
473362426 401260600
832711504 536564854
547346463 592031337
234628598 561067037
366091337 20789203
22184188 783643332
232431777 303119046
409559326 539628719
906641895 40400002
375513725 829532955
29641080 128883074
23164617 321560300
670323909 465458323
157599926 946527228
94944558 639826653
864370533 938151570
597460158 6470722
503943237 912345543
96683226 192461128
631732312 975108203
586446781 52251344
141412339 166423838
71910623 551218366
677044986 595455015
171776829 373494227
961796188 105204451
226911254 104256488
15972265 849345265
728905950 274352877
556114173 956755624
979861609 247860477
729655275 348980979
760330152 411150317
221043776 981751097
959671559 514241606
886681598 614279847
792249653 587893936
424153432 379834593
183511811 365791405
911721959 847824520
563067815 367923594
974048193 55476415
284777262 892839789
171779711 991995314
966956510 477177461
920601189 274557315
803511252 581878951
328414116 969667499
658650077 221477098
570376423 897634328
66790069 120472634
46808120 202768596
775587630 174826959
853505774 58234649
215514619 236816734
188836777 765630758
196116212 238120607
210225398 582044838
837822013 514739079
226022097 939187134
833127589 267760424
524925526 397066468
511822181 734576275
942387609 732876743
65446832 292042038
472739064 435772338
401829724 677933549
268982643 945533342
839480795 351816981
605377810 38567458
53484369 703974980
223162136 583136357
523192381 183269872
174046784 846538305
366031735 564890077
943316478 191951604
352686845 713670713
631414944 40690782
925757749 213965205
135915814 268491364
777840067 207277932
755943949 313169590
412156611 868584262
728717338 940657569
307638529 921480402
719343103 424188398
553441098 64567758
904497901 193663223
333691211 170063026
514644393 331196888
735354067 958567884
166535434 832194900
908860394 927920614
380414920 901735070
291614246 548024437
867208944 405007473
810578040 773038634
508273559 752035208
619186896 45703362
557218902 421572144
246200296 919234069
195729495 166098045
622796134 43749747
710609958 370385391
398937352 903696917
599667902 119069723
672327123 402273735
626026165 197720349
324262224 863803947
725171667 239741305
636972683 716617755
681284168 824725732
441344198 398594770
382149848 526270128
113764766 535456948
305464376 335929327
291195201 616642040
785419968 221786792
881553995 135313129
281196101 764510832
628917199 41193627
69215791 985428359
569112097 79964532
734128644 993787178
473538360 153052433
519658993 456996385
361976181 963268136
291713435 353349957
916665761 202784850
208756050 43228187
729167508 253946067
365329714 436880256
921234194 309921011
415836909 387742052
167790998 106985986
837373811 859758362
202188506 797720937
106498099 461782168
357766009 523281173
641555756 498218779
70498886 20110602
907780836 733014116
58154737 656290930
892677020 238020438
865156880 18301667
872216200 493050024
108324895 481038393
345396830 81034121
87652985 183729097
163753657 4047673
315552637 738866431
318165270 582448222
43700999 555657717
359871713 625991884
865392472 667604976
974707645 73835274
682681775 267748147
601487595 766201060
490903862 182990441
205495939 813268725
36461856 568766802
677711555 818666521
863064728 443034666
487997695 30238543
102160875 351032129
274652391 24712613
451609432 883573813
154897210 780819194
826606401 562927049
179517411 896532723
759685479 803464533
889972381 80753850
91321381 952386252
730600436 489330009
73802984 990500094
328142945 124035953
845426190 460154427
58228894 678141881
935953470 2508666
738490770 189589495
304737438 416376958
117192999 483439085
631494804 139606442
667052450 568502893
999438004 698042816
141575708 598877970
298535414 641192310
948936204 145786012
29555161 997101196
773734149 255785072
548151131 985635319
332705001 919164995
307255891 659685042
977837853 236802811
47133420 103938408
863111221 725364987
79869959 877997116
382428290 462843163
925644165 295627066
187051698 170720369
22287804 790357965
649522168 135898098
927994704 394528943
525135171 910937330
55502020 76631895
519209382 125293858
642597453 318325969
995643848 424648374
413078420 545494192
998156270 913036397
136317975 455639027
590120387 29771856
721538493 38949191
139933009 349562086
480027804 171083999
211400154 160837999
430129985 581902432
938955806 860386358
93127284 140276519
638967671 125274188
203394774 687137278
135785502 993085608
193117137 488888068
770935133 470698366
565603281 625524240
188725245 889840810
550140714 577380397
502633613 191255847
146506231 289573854
959610852 289024074
259695098 896583933
50347256 279112916
258057004 47015160
658697412 974545530
791289764 109841111
884017101 150847816
481792187 592981701
918672925 933998468
839332099 686561862
45085929 269042039
507426292 978583701
469488964 382226838
855456164 784123852
204423774 489452489
565992885 484712619
725474725 74639521
343669132 263360544
573957140 467368181
324426338 986932177
314390856 741629723
183976665 186126586
33204487 543297643
466870454 15124176
56110781 967144461
842461383 115748115
339624783 853306978
420219633 973264650
478553895 685793943
384660110 472021825
175116113 198154580
807118034 969384130
400042725 873700069
841852277 493049824
844493254 509376930
497558470 153494497
768212400 593712221
580378777 465989368
593449358 64471702
346928749 445993085
703582490 523224824
330547887 547280046
304937751 450288492
320809204 477627725
362988053 414938249
660257712 77270433
270849724 890802064
417477185 441298600
986591063 799736933
42061463 388130399
846151664 594284080
747344926 927491292
290348579 575639200
674226942 779386153
415831312 99663362
224882510 639266514
479633330 983085596
94477269 690897837
943880003 43593867
947369624 706317548
4954018 359395354
621172887 481591275
86725273 515695147
285335673 604520408
402007002 715048450
165974010 660119505
428052900 755610300
495484066 210101873
791784376 455028726
819868470 674425612
465774965 871613272
931436167 413315329
819041316 517013585
284278880 819695521
419309651 179406630
27254673 758070082
713452244 486793843
423721180 462376216
417205792 629988588
32288445 352061246
140708842 710350509
9054826 906123158
601381413 387624275
531860682 19441989
571247874 660177553
349101917 915700468
697439770 792219011
262562916 655950685
349958796 743955532
623787101 912200085
825500977 124901679
433485763 754891960
896657136 246252772
5048190 798621392
951221046 685389542
511859799 327028623
289775432 711953436
868965987 407468813
732679520 555859567
985299961 208217968
351394747 864617576
131410804 330528176
445312643 298701963
222863132 383288396
319523196 843263335
319202483 879810446
990582664 335207883
981044127 704590518
635805907 826043052
519810181 436351634
619491354 112842630
508268537 863857318
281779762 382427048
375632818 527564368
953450134 123892921
768277296 283768856
722531541 537224359
318916564 91007735
975952297 456115689
930169895 170808495
761612873 90026316
156325397 532051232
609411843 325577316
820150703 931077354
56265644 817704221
896802207 13917130
62139671 313162713
216702566 398461410
768939174 971400419
64363040 406903660
593775923 367666418
9709109 645958983
145612571 624371314
723417109 453809145
862510454 376602276
785928690 441350166
363137221 345889238
601744025 14856857
524843570 961977900
465016309 370350562
472552533 933089126
744531799 186293462
299895164 817469709
662713440 281196767
394724942 322316493
614486730 840576738
234146670 552083471
468312988 255399072
577266293 135369693
698968328 525943545
426419834 794746217
128396293 80644846
808360442 857013434
845141102 542827763
714615026 793531078
604703510 392190327
991757091 405622389
118995554 568405318
113076653 896766521
749129786 516262199
621180259 27829758
558085415 692677014
356418093 889806346
558131429 829553128
913364626 755007706
694845819 732906933
226279996 665003092
665005873 811173525
675981199 791227364
715484648 683954144
936660881 276298673
962400339 208295560
568799956 867127065
259855799 714472907
228064693 433581842
431221994 351087220
411950561 692136873
369349485 201275322
858324860 205064145
197014068 882505198
303935218 595393197
469598217 515726544
251040229 145834912
32723295 71454065
995979255 363169707
501905752 674487688
838074485 257847895
245856432 833188215
764713246 568186636
530846712 261750732
32908770 867643065
325440216 817087236
815852237 937482954
52794191 455806459
540910308 352026480
21390029 235343813
260906291 664473563
159498140 649875932
266751217 204318709
916665642 532707913
520616395 670466156
663672956 757138059
348058844 764991649
918456006 700348060
902530037 236772812
439469059 287219270
742165728 928063060
452862874 325631609
561073853 636316612
568859476 754007723
961862042 162209527
698388896 436775594
658543891 213261894
78202434 105688788
206709467 466779739
194068163 721553756
699497039 181615014
522113346 426815452
417799492 588789550
758292384 504755714
781318345 558887449
471324050 821736443
764609815 766123456
710309258 446406512
363949844 773523102
75229232 676962083
812485725 660438324
448720100 614953356
751192660 530267027
762143327 71479550
125104820 272884176
528997933 238913063
872033777 39707254
158256482 88653880
905021550 790020070
733547346 349098933
87720443 506750089
293823245 17965814
657937827 554444632
923368928 550752996
617206795 966124314
441769060 748306831
417164194 798488630
603997533 973185283
462699931 985305097
427758468 25564755
572028239 287110174
547569106 433300937
718311160 830419040
579405677 439150859
451166725 640327076
858211826 212959883
92758694 566091731
790481094 944948631
448900878 9442566
713508027 959223279
379435965 355417525
920231117 763642519
655469669 632271383
274043137 707486791
314484715 574371317
679045171 756528516
18721645 215563995
799064581 144603644
73647002 659358288
838213238 771099750
849862291 373415396
446287801 403736728
719755563 576264628
312896804 464516980
94736562 421536214
219335045 377888995
198594890 911835140
605149718 164761137
134820406 158620585
633583940 402277185
778458728 737703104
861110174 57595963
304684560 402744747
216950235 753612226
723121448 313798226
779086247 368169743
512791226 667209394
747441410 944777985
796901214 436506669
721206400 949035621
87008128 968423748
614740836 634359602
925625589 126522993
730562120 409870411
326529683 780850686
488171108 413652337
196737891 475684313
688898782 658703211
563162147 69498300
743951862 538974634
777352138 443275027
634258876 192749139
245203881 544890298
151481904 876855071
39877031 928315895
110278593 161433474
949621437 120175412
461482199 822575926
633038464 755561711
431722391 517105503
966887614 836721746
267776034 794786207
791328893 620703829
303521536 749187571
154493780 929857120
26109455 714759106
595790454 72524378
596263652 777163717
365455397 55861203
884567636 742280861
345391531 490769893
986041734 982241884
685478397 326752665
730433675 833340304
946483687 147823326
295972200 553775313
820299879 18486057
513844971 68450787
864958053 252046338
890789823 874624816
743832574 261355879
589458402 234485937
989235653 129229127
381726541 208730235
117789744 342392031
648229440 557471027
576111651 405821361
558048844 616120066
754730367 114056873
886529883 675305286
164769967 297794794
850533234 206240735
63517698 945039502
125167292 676209386
998853907 608935219
383731521 815981035
390387810 977654833
94847296 523351193
543855889 114940913
855637071 739839148
468531856 621255634
78384221 948867146
68246002 958369114
687006812 938334164
307515916 150609467
709269586 96250509
246480 535431713
634322612 195942630
592412133 428704589
967092110 382271454
508740961 198215470
291379496 325962004
740032258 662150649
319077572 683785887
738124638 648291715
507989645 559263042
509420583 8784269
717027926 569062374
102923227 231017355
245445896 372011230
390908935 458368761
101392355 261951899
77387673 638965508
439618586 442454409
500218596 943658706
396562006 789027282
125163248 196619745
550864619 421774398
55510549 433223743
821299625 863995123
953602119 705048116
303715459 887095743
163741590 866585341
143695123 41620824
54796738 183873116
615175053 913492604
407473370 109412603
965059678 883218236
905419950 345857473
393641728 663880697
738323022 839255900
127408272 766932578
280540844 253929351
375603447 261053275
477178372 325700217
296979991 177605888
346412734 86012877
484079583 467373057
770671848 450141403
127203551 528040092
842803951 810421442
133433574 52815409
343089610 720805799
234512326 552588046
539233467 564050401
335334288 574070292
181163439 280077928
451600553 244720806
507464411 825361088
183547309 263743323
222376530 757133261
440110132 562855722
239215102 549909338
587741925 71561152
609245552 105456565
718234809 145342464
653012571 886224878
170515715 693883510
689709578 568438479
199369239 884325865
515012187 718976842
707028932 209842107
972056922 131826241
668578303 132424329
686996541 722783058
259011995 478717551
533101594 326179129
831340188 117836640
287393958 505411028
388964667 362809415
80995875 106074832
548768114 173291751
445094709 748570885
517455121 743683157
64449933 569162400
825002853 631855891
280626988 268129044
57454330 327367115
330792023 971088068
781125592 804242392
409276099 162481958
584703819 20387032
636731114 155035520
682632761 380733182
450108945 174750731
898882386 935688902
886349369 857090783
290060823 412242890
189927116 685701263
39948295 955708809
492723580 811768418
930448659 143471514
792507522 722148840
755797763 391113484
472002381 277283968
679340515 213379448
398720965 493736451
409311675 920571506
697180061 340122587
499197793 793725452
465522712 50471551
247543834 868166295
686948195 710670123
613743279 683257823
241517142 223811845
41533848 946160103
283828941 266073357
528997136 944914663
415143808 33944487
765863628 188633012
383063361 186287232
104528360 310254750
907791107 975899191
132937986 232237890
541267752 715036660
529202540 662132803
699394402 685331561
526638846 251914925
969990371 857396809
290433379 999054706
121800952 834399946
334287202 503807843
373617713 827376916
914922140 999518690
703688683 918556424
170285776 284510067
623652809 162676720
531407802 286073185
372126747 171149676
411741576 242397180
174259365 933550466
857482797 122647363
823944721 80005947
19203071 566391763
211287099 498368959
540735209 966743055
821390992 636808715
184476419 786738170
193318691 558391794
692505243 896514997
864921564 73414575
483189235 867055509
395896449 150528332
411298919 900689864
940154172 11365770
190973892 384808569
960363905 292545479
314163039 796831368
353668663 981507350
748426248 631869695
628033546 391490616
720543350 996263435
729310595 334476097
341400583 477386640
229599220 173617426
106998461 648360800
369677906 830111830
571322562 733311337
558883899 408758691
6880553 987403113
605274202 875467475
757973627 79289762
378599507 312421070
122844624 436811618
250540257 226005919
141545308 158023932
910063000 331886751
698183683 68157552
325995316 726961143
907817553 761430994
172613532 54443632
285071615 3275150
518046711 872519793
750723649 246496601
612523628 163225651
480367332 388352484
782645998 775306335
836781082 533041403
592791336 479863549
789486037 148932856
295092100 475715311
616541551 126544629
280509063 134221317
492511293 916296850
896388941 648194329
465357134 599353717
731960031 621417852
486487270 271462991
603316447 273088612
171130575 796440774
198148322 650036557
453133798 376043026
949559727 461124276
408501630 219984687
116717663 348359636
209854685 636713771
734311508 318381788
69717965 383005987
165247372 313888974
764015155 802609941
595244352 259152552
438048277 728999698
547283043 727606272
95994052 425013027
948585456 960575983
444913110 109639972
500139188 879050142
558464550 104432842
247516300 597859294
902607444 248658540
587800435 925408908
696457719 56707490
570460131 950548001
102842483 382211302
612762763 159333297
728488912 791920471
466961602 649716678
307130231 141895200
144605330 66011027
578709016 444282410
831992999 363682596
122442289 477211956
171436727 744470418
955516234 48916929
50937452 20573379
853225368 815791854
818462898 493970159
158305521 764574027
486722683 467782112
793947864 171414992
42325353 910871478
58872822 647008740
809310029 885239057
492885957 180767076
510172578 773610981
103970974 779663294
431244077 996977831
652886211 862856752
248790006 540210835
623709268 556285086
321075676 515442095
378568812 104618033
748751836 948036121
489926388 335764377
793587859 644513518
706847279 381645367
721655387 656092294
848245182 13034109
564209789 938151337
766765848 98345216
921589520 675119350
2089710 326706503
185825372 710781287
112632411 762524169
1463607 830616213
341696734 613217154
695345253 818218110
282508652 693959761
947875142 497707471
749993736 505341958
864459136 828620686
388714611 911975607
536547642 174873951
164890006 659361534
654583692 7313867
610834483 479777640
323512934 65598859
140364926 573136174
631385307 800353926
478685813 439649567
735465329 197990412
905959931 312750167
558194741 779502367
360467317 834276834
737510652 144226462
424172512 513038101
414301679 780844710
928263349 643054729
747902815 845692732
516208597 966459574
934497868 518108182
955915846 461665472
216065429 3268212
94211543 296913121
453491856 631539329
268245110 916173563
589646692 962039875
795329232 641349377
415844229 456850181
316725275 258790139
690936141 933093940
519849699 632254391
979375785 89691586
384405611 901799280
235391248 650961231
904556690 685589091
32191266 104681318
902786321 69113370
41222941 866948174
995185502 11414587
437682632 766933128
618036213 327488946
573431336 55631393
952828486 962048236
939042923 183963625
233214931 842371094
118876474 444469910
602119528 266747362
425186730 766340461
301000030 239631497
127387086 201718604
702701355 9533749
384108495 855749641
734225134 349826015
97624967 205927671
832366801 226478179
268762356 996101463
969365660 774766694
499386865 991548007
299955610 194239825
341060876 409674348
925407465 51373224
923287691 779595901
983662874 814210597
153152491 578541380
154966537 268814931
343199833 953923906
43744189 449471785
139242462 401457676
517009 806277409
166197278 54812023
252190980 21437418
869658941 46987383
615981233 715125853
895062364 442034209
496899571 91975984
172350502 551920593
132655030 529779602
48809433 945841713
953903433 574390349
655053369 54590984
687755149 466972653
80650435 854284066
517693113 84035088
258106406 294153322
575298333 863614490
194119348 214993880
600708601 646135843
631980722 436560040
109294238 115180651
246712403 984057702
523504164 812884178
124492195 837518601
925096255 129455024
499017513 938537337
619168875 763173841
20407475 408694068
260346657 299466463
192071889 423361526
147021343 399016895
38998172 151758576
973199947 170446585
606482481 737415012
424076829 286165099
785269509 826877635
971669102 508266366
441813330 565621735
909314803 354594247
492452949 358517818
458583832 729551437
315455750 60005250
562895238 516626850
590956749 24215180
290349494 283342134
666379373 876840464
368393174 74419418
376139231 458962494
957454538 748542504
273917718 338717065
257343198 435890384
538501238 456260859
880546402 911065596
271486142 804721593
944049605 459810917
347394656 545699758
997717832 697849040
41821413 288611033
43178309 945079715
697393585 551643820
725975538 408913723
614330087 524632144
861242200 618659270
292977308 32570743
461740132 760372866
643444678 908345508
417087609 742922601
554658469 699432290
55920118 235092579
578650170 465229106
271522847 6891461
823446830 731027275
529849259 280399450
141051504 48193691
395228085 167930399
353651688 541222494
325752956 106029375
7567321 389083368
468632387 788138196
154805046 66946000
976791787 213176157
654028032 717341611
707454133 798640597
748095866 652113788
535955885 215174674
268822699 189769584
544627401 767571086
111894318 135144372
375717728 393233013
810792648 604999755
361664601 820043826
212024413 696991024
644368373 591966380
272687415 312754645
588240734 170288874
646006099 573854524
326208085 276377817
522497618 457632282
663448430 186874082
506752872 452647728
714615664 124967870
398657640 605950730
284773240 389877719
701968241 511147856
196836095 6257435
666382793 936169221
532977268 826354975
392846197 359281871
826807526 24133162
109161722 168117960
88340485 804779430
347203141 558252545
704279842 305631875
995626086 644991903
124185448 485172794
416009820 704953576
960074545 493222972
562638735 404696127
739055124 816923846
793750138 131067858
293622076 362509163
9516166 141487089
61606468 284496179
188775439 107816422
472949210 24565860
391638727 340474690
253439587 182681379
286570571 125545454
542902729 155085976
795940605 311893774
651449042 401017341
741649789 43937793
431562289 52735678
847174878 751056693
159472331 728551296
68597741 733209171
6027134 331205193
616784459 378916515
552428625 242954446
998508521 751420125
309766192 77913978
459031596 637665390
176782351 842510497
513035666 663063269
729234533 76600917
429500418 198515750
908398820 724790250
945021750 539809668
980968168 343945152
801025804 387899133
365392170 81664306
362897543 828409995
261620319 403884758
4259454 988497187
582024335 731813631
398550403 486441834
255422514 61815743
511972263 126680716
422947733 203730735
452592075 258110386
869011015 665086504
600035161 513339735
364203555 114227193
388753044 997384313
739234900 470809130
619026422 400370235
882122563 998659570
274024175 644793805
459835584 891097129
142505250 187383459
58014414 202126039
840741358 420335803
176352531 786603321
649740732 386019667
251313157 686137868
241070761 962843178
824325807 357614030
480145539 237224942
78537860 194662150
337187324 156191586
972004391 219001307
568785926 740601432
377931554 712497810
527690301 51002109
325053947 921731712
924545001 776875240
584456074 552004403
289048473 868052049
236016845 790525248
431924414 217195901
713277451 912332510
841831244 557674712
486847068 328272776
900853084 454892271
46596005 87346998
213749677 670567911
535389520 431561794
827248658 550671089
73654814 270872973
49776381 878281318
383726518 902478900
816183042 180626292
640082290 941517190
341182195 525131089
125109926 282469597
13484998 127547388
261872217 757916010
276180394 639491969
171472486 561105795
57102347 351413271
516732528 357784000
552705504 57604402
19313935 825886741
499010742 672094004
106090324 15778584
978186864 916289397
725706755 924131694
475682302 21588635
37970927 553022760
943747792 317150277
4062180 835418730
642577091 640206042
942547929 341575566
929266587 165240277
617924758 664345357
446278909 878480824
455999856 205619434
152026104 900561929
906570462 406880152
862248714 23933927
744950658 176493671
151268463 551284774
555245877 746234990
493532905 149845220
541033565 435611367
819023736 721374510
215291358 327708955
460639378 988507740
298835704 439293650
564466592 583479712
422511905 53648707
836827876 660942091
584725153 749772353
956563264 556198664
518603853 859508809
411001627 943926299
574230183 686505017
953836717 263494690
104790331 360730200
36477933 21590212
868397460 483788027
154833074 686078384
264229487 146546873
796108836 864815409
650244070 825784864
89635576 104069455
934250184 665141124
747413723 579350576
216542764 765826762
527705675 757407488
357284497 220927235
91680781 988109838
411829856 825184780
184703035 791106609
235453335 72141983
139708891 439480531
33517226 922390373
296376471 876050231
312107001 636720941
649327584 877890597
655620655 174603368
790581499 308402100
854029740 634694940
183467491 313456590
654735059 12192092
667811572 42170849
64778334 42028739
530079322 404074655
776415849 640093049
676842068 216325437
876108835 481606157
217390201 176985730
705686592 463761853
326862430 797698766
709465156 254645576
337561933 81205239
286938748 603359303
924293937 225595316
238927244 539588758
255732181 969333524
303327207 589301335
778347810 774533831
178148925 322496362
294479667 814963918
302402930 533375987
931815676 997712255
7787620 188988414
386483290 118471493
549726375 500552678
384068354 115471846
742855369 843170048
968173194 223071624
311403583 465465469
67197184 925162827
984320124 215265622
557747056 306545943
143857887 288346468
185706856 462174984
461557730 250258890
239095830 484988385
290382107 129836452
101566254 547560297
703439310 971119246
8051898 91785860
568446469 487485580
170001550 527562700
72554470 541591631
84578811 671774167
313463921 873495361
527915210 89213147
853513968 748551092
945580630 207355841
802829647 701988581
583149642 185244533
953887369 963481953
144245300 376596686
751215745 352937059
326474427 952579028
478615205 222959675
74731379 58524740
933484098 8499505
661963997 353026403
158894420 43424916
620215197 32774333
803108950 216998264
309536422 278842566
162412836 224320587
877716513 547970954
523413319 861955917
224986759 445177582
150969819 589692476
611938481 868500424
526071475 434018983
925343913 820538310
865903572 542300578
587896502 225774876
826828385 691581354
731248979 168243129
90126541 541605113
361160157 453282287
681936504 277730889
315715477 501735638
131417169 50550014
633280370 633768663
644258806 636412583
707352777 598243214
735204373 353453667
359100114 349005677
109642263 64163204
862915071 188609302
435606183 178138237
732053705 238940080
416008811 341742962
317873162 135482304
529045333 110070544
978079517 975350862
886114983 651208623
763259541 719999581
469649693 335759228
36420531 479492598
272262447 521332367
537741238 24672862
491871428 759974414
915664691 807405202
259958587 67923869
285162585 58020766
6239715 811364753
737123892 602254627
934720999 654760043
318502728 856222991
697382848 901528738
660972055 223007413
196812115 194341687
130814206 110626182
422848450 614854223
852517551 631782740
782617621 247413107
306825049 53623044
245924540 124217853
604327472 940494818
573713403 887373030
626311306 110304216
572692672 417634380
714664173 664737579
8405216 548032313
516745906 113757133
351068807 226575402
224508767 635024772
266311581 688719512
866025256 164876600
632185000 463932501
708604444 723333946
11841335 933642635
522685445 988492623
194019668 292691700
818287260 351298196
545431884 137890240
950305255 569989225
839506442 813490186
604184317 638323294
481637192 290300083
895960996 877650752
382780439 644754610
790761287 387315501
625908885 331307474
485187282 539891272
200622908 437033363
578932044 716450081
520508950 68670875
129853943 842196421
366840439 632094562
966406515 468525189
614354753 436379862
482997165 105957212
244770616 470049648
607230450 712072500
938384002 605011674
217159521 833860074
767082178 456835601
732702376 215669197
97083874 610055223
352808319 363695665
846840521 112260181
795110986 42720632
17835313 683504599
968110713 901641489
768386051 742359529
504254147 513185314
150695222 996729017
45087382 314256342
487003836 698161443
792413298 621196682
284546503 354699659
801073421 876114926
531178581 302624354
627406130 527022681
429142118 499451554
324062515 727153755
158044484 748879162
490529720 851058576
289531787 154506685
33293920 87397471
191805838 343190212
207582970 944661463
691067175 503381839
164919812 296370631
713111160 43893251
293089752 120841916
487942911 266610470
723861003 631877605
241791753 173945315
624491799 487117349
165646492 916943864
153257902 520819971
332691256 737550309
538623816 917810865
546640653 217246824
850410398 747851700
598472438 579705449
823635734 340064102
850776904 340264780
683339086 862596995
348563329 356417695
363856501 304975816
297468290 434016714
411448293 103702887
819839189 680516176
959126755 77706571
293525252 116178013
319757461 671599962
914854467 375851872
225644743 516978339
981202266 370138493
826069462 144554276
207802521 173140740
37766598 210817660
941061360 797982901
496477296 268183511
558033386 672763468
791734978 671197430
857240460 183927988
997164911 856229587
625727448 401905003
119200172 82001418
68492148 878675894
158523717 675959033
23481452 63816307
918344600 133069527
143513771 176008335
702629868 411712574
440640657 14157401
905694879 187248502
517033847 991405612
4383499 718821801
483296025 646583269
595693132 686317579
171937990 967717379
767618302 175058679
998574572 361265795
735260379 33098570
977935971 723173833
165456524 125365898
700899639 297924825
829575676 272750222
148513168 252177071
65383359 763907800
816164065 182701168
460834672 399094644
383045366 157086886
683762144 345529204
11080788 804298919
798024223 862147776
52144690 963051976
126459780 108057845
211863504 453092144
534346978 809624856
427807701 515094105
197243422 974063094
172673174 862416482
660103292 116561984
135618990 457635244
858287255 34246998
303066784 101955516
70815704 630760769
813554884 773744432
945857240 847766716
9219768 350159830
264612788 125956459
609689496 69694468
918608087 800651043
485788941 971588411
86506097 842876635
639285055 853146938
2303012 997451491
417855722 561712357
986929004 897203290
832185496 763034640
959127557 129342348
784615379 627011141
317385371 174776548
871555303 630397231
240437190 95302594
364607032 446586518
693767565 986394557
888260255 264993098
895355461 342045258
847651445 400857031
852486897 73367098
744999561 477775779
863573548 535480770
443705826 129783627
634267063 60825284
364619926 345063875
142287944 355190198
179637783 585706157
133416877 12600320
879102030 698899751
900240650 800250995
709314647 633341205
807298691 280907888
629921639 539915486
790282069 751917889
588122891 868620305
230496050 61171647
13169874 6081350
725608393 296277720
442328305 835344486
485963418 936182168
189251686 377562949
246162747 614528038
160836435 134287024
10609671 645458718
986898990 18199117
658546959 199327145
295715391 620227210
186902832 675439244
114094411 930486852
540121389 90698863
187459567 376657427
337708325 541863690
216372360 668880175
915697471 616075349
594471614 413122598
42441138 183717082
780211505 480740778
549896510 329924031
343500108 16273169
79279194 446336278
224315040 529367025
507721503 346633587
47584546 992780426
807624810 353911389
948138073 858487063
379714389 374082283
484812211 998176822
271379409 256777984
457165604 540315456
111436702 805301267
761465732 697368801
442888878 191963023
446946620 242891448
835985629 27039362
475382483 442945504
959913362 677256304
693550933 42405106
183188343 294163686
270692099 905428533
964114925 305334113
708892160 289437838
853801735 797403645
521091610 650351485
121675352 358817634
409851631 413447841
57601991 130492467
294997273 680819526
616503621 226022124
67851873 422556690
897102005 247144299
307386680 39606342
339404607 486495684
997745368 794104692
447002076 530683900
208132674 122778429
726605218 9098408
933557579 308796132
438121888 780790497
399237999 441091737
717206079 263351564
201596804 47204308
58627161 714479565
709728984 892575715
804030690 953886476
688150309 771739868
242915788 912741599
970790151 633389085
412289442 414602932
405007330 14788356
75544472 463897240
88607278 248036465
606017069 802623497
950826468 593951561
252753929 117573418
939564082 183898740
909282422 165640746
54090675 28120266
963985717 102372269
823585828 111241642
662546222 29268396
112530645 840770043
790717585 372592875
463860801 954470084
35776213 114604184
107828134 86642825
246677182 316894168
73209730 182591710
31689435 198994402
49925767 717156380
994668537 374186080
983215695 176770423
88154741 212519796
226531794 388869389
299533260 930245430
286868832 390575928
968394914 612329150
484355344 283889543
963728524 709995860
569277508 114187705
97757126 814630332
903937838 23341890
269134990 295822245
557167892 468358097
545821648 982078102
94102808 411273192
690326250 505989873
649965016 780831001
936181142 602738616
777394558 409583123
694263765 102809547
37370181 144609448
596650488 624365514
833591071 191521397
829716464 897971857
696036901 98095692
946845918 597183118
537567520 805100431
786458428 386839843
734645821 425138690
252591860 906189919
525409276 159715489
689911779 398679369
850862878 503233781
282306434 226865495
984752935 63636283
598919128 554919134
399716403 152585647
936489945 485668551
269263305 141349958
578439964 155357717
677548674 225050210
404397386 162198566
604186708 430292293
529450973 276552123
168127059 160793194
773913195 866381030
714996586 897817935
920995985 280357661
207443679 396607919
778016538 11266230
540479920 967093620
683700588 665859916
531318498 174890983
146119152 912775329
499324907 780101044
371866449 917444792
357574997 767660339
154855960 260673665
873374901 871326928
23953411 839217337
490685260 768388413
348168635 384540232
285321969 181642225
204757028 941624696
87183595 955728230
960627153 810034086
424146944 158967816
228840873 871417966
547358010 360466781
331061397 142242384
911199221 665854399
615706806 523281224
850724419 416945817
503355712 415165217
423559670 681936879
96337798 723363862
850666105 445201716
93904224 950388915
280672433 324013649
261353402 300944507
192512832 436464494
781169109 788843290
710687559 637141942
817534642 186300281
558468942 481368621
44265589 109634567
649717329 220532673
117124854 353219119
146853759 455186128
828845295 288732495
431904895 420712706
931620547 756747506
16250815 141166953
371234828 418401316
990905336 592912014
361984072 671466631
342323380 180343397
411478559 137812801
390124034 924385095
105434601 653829742
767225884 836607247
805973496 907619344
435192702 793688463
223260920 981853061
985494007 867215086
411725364 171788492
663748734 482165975
437756618 259598936
471652363 592594389
193902094 891698489
68808409 831013188
173411275 131618211
377201565 394814065
947680032 63601388
751347865 767194529
109158414 871159616
698442802 530339711
175988907 187677962
365590901 11300145
411008285 770468629
916873797 223830397
132521693 630393167
107811591 707294831
223946968 506112308
777354443 365793825
4788448 967129031
902302690 698343204
566248403 922826348
982943573 852802337
800857493 904639018
489496499 994558874
266048365 401246292
713138565 907051541
140722662 282105304
52842514 110376283
563289872 700066062
58728836 742341405
683920838 15647915
303487494 240090171
477641275 497111692
233100227 536562799
437681955 228584407
222702090 88969495
198864612 707225518
941764698 310085906
857842853 389582661
880912891 859701762
220241537 534831845
422648028 376332367
395420984 312813211
993296534 448491348
58684947 948304848
264401176 108012820
64974645 996542284
776700701 673052207
624719913 479787160
141575729 429803520
340837229 799678996
112224392 308853406
833980979 347106228
153570112 252468539
328816923 775040788
878072330 84486052
442477514 520716485
225846274 273601380
260811158 932706879
625347409 445181951
552991964 598268866
66739536 443803782
838366656 453944320
955776450 772102207
646619749 915375049
421143667 863567721
821910648 852730461
99567565 571697599
656679742 11087983
843097733 512643879
73854684 968214548
477507155 420468728
547164094 796918686
396769421 997241598
793889378 568035824
751013818 525391245
461853331 997018801
814528670 44864097
220636422 498828536
124992404 894424683
56510409 783511601
290824263 35430021
480286486 491000626
748071694 650632710
494826482 153575102
776638916 231632811
663512016 913180804
184044787 683118864
705910911 49743155
990259028 381068325
195782761 122185196
598473178 779427931
282689077 216367883
791773917 364810550
500641568 5531334
813579202 954147948
865213723 97351585
683129037 373510356
212162522 455591578
439182914 803189791
62264584 152902037
241344090 970687690
117977753 109888785
339842309 249536964
299641976 861269515
906776959 314092221
548286302 257793832
55070380 990950314
196725887 739269071
910804883 360564299
250782219 188220166
912454200 144811146
655813709 588851016
805752864 824725569
171525776 839973265
784091303 389618103
399946035 955560802
940471786 316420674
503179455 483526539
366858340 554448352
865825907 868188849
339316758 47349635
245753598 905403707
577995213 757308042
865244475 266383507
210408510 110548575
629993643 486156902
674652241 700789625
617883163 983463337
539950216 674458137
425266239 190580569
466483825 360773474
46811700 327850821
495080204 865621077
417013207 959975081
71790955 288217499
556037159 54639090
640987814 56507216
979011240 290297628
268088491 641440098
375455694 95095759
233349990 779894149
579582788 656416915
507402479 884092038
174583419 95887070
683459231 680753257
483422632 704844947
468580767 624656192
427757488 961209952
102240032 362061486
432735468 657385051
20872163 895516461
166220894 547460359
46192870 310212601
704255961 512142585
433192704 847501232
897808093 894581284
441435394 397976869
814118312 534447053
674509680 70764555
671253677 83261085
935677191 155844974
76389271 636484003
448310244 51361659
701419660 245902937
751983976 31699965
978779665 211605978
422470844 923568445
993624910 672453280
393660169 915896207
233283431 639980176
502105040 588804049
996237812 178351396
458628918 497081380
643707648 999689938
336186624 385276675
98006515 977292073
935800653 700040615
681398028 398559263
361047311 795554342
988205463 212188725
119222874 502012420
749739725 51491144
536576301 873864951
471540842 120391421
196682984 521092901
599219309 208877812
556416127 695666154
41835042 306824191
291294850 331000690
463375785 579736398
227947509 529631902
708360698 362232523
69544348 860455128
192821492 627388460
948007148 984606632
615545661 185753008
691881682 556670607
329584199 997113783
59318670 658675831
560658951 414059784
482801631 640405781
501796915 783137545
35884989 696684808
514463730 147186650
83193227 397069039
816843989 626070170
118682780 404050687
62914829 731565311
180959079 2687781
134038594 468413560
902158236 301366782
167874491 683112568
825762033 827893170
798675246 423015729
18427089 984584498
140017711 873971245
978127223 370124536
769054996 461450978
199574292 202302275
329657972 286830626
456044167 236477010
812394012 1711374
608717796 939483332
340912624 305728702
551086242 73539387
795500168 984463083
811428407 124959175
364023250 614054075
13178323 421943408
969850647 484255226
716368578 547251409
181504821 783354959
134734343 600078412
301712080 780353959
838473592 374102943
666074142 192942649
987686798 332289134
309252677 362634166
755641710 557116717
685688010 255728930
215176611 975107756
612792824 223973574
281418507 254832983
860461518 401911378
198368396 822949096
485527370 77371214
567610383 257587715
470250597 247363421
542124263 217450265
255509942 862459681
151313439 524484726
85746356 271938839
751304925 323006
30393058 635275178
102539253 635472945
39826982 505850315
53438728 426352842
578922768 189029785
298582828 801772191
561699757 952882188
677701615 502647255
336766316 480631902
133933772 157303652
360284757 635864021
427619799 489117325
710750608 661048354
612892991 980080214
27407198 491166180
518825065 742471136
908059920 539541318
687757315 691950525
39879617 692136230
426696917 385956031
623449708 593021571
993966318 790542215
714131153 772939809
330022787 479562787
879707199 795287894
410855140 846595123
482023122 52333592
292879658 350503340
914468341 242212855
48705216 257989006
929634471 259043651
245172248 769656456
452556258 263501103
212260375 895988717
953342509 625978190
651677627 245034893
807971087 256904115
239300956 522441518
698914919 11110856
49531281 50811317
567781348 254323428
998466373 44919205
729391893 468719291
488363965 490220081
915944234 317894483
384309931 705014324
220411224 911913275
523171789 696494899
578695590 109434799
237597202 81982380
490317639 674665199
472790549 431570231
912287751 859570050
938789372 69769001
357261970 67484143
503763211 49024760
550776048 692131619
981935459 527906381
173869653 47218679
890549477 526914964
161414149 290653616
577464159 557641846
936143388 998245823
176652050 90985883
883559360 592920584
428452744 367572674
497707798 965450684
633272992 66751802
843843086 297956523
560307700 771407765
524496409 492864965
422534365 626936370
770477851 761636828
869928756 79992679
531836623 691935788
327492590 462650651
533726158 502773571
282297580 487960058
711822962 193780616
437919453 28817217
224112017 62070038
785362603 545783988
392811295 253746339
546820686 871552096
708648863 910312099
79024828 82650118
128885456 503892350
737541910 276193762
408014411 791254807
72606148 770158251
832421342 303160838
278457099 592180134
969375123 505850361
685641079 31282187
177221119 132182799
506887937 600656816
582082280 709696392
771784141 691797846
26493409 421893602
971452129 658698581
69312545 615574310
199114756 94803342
4147638 761007836
288722273 521184313
804300426 79207567
799504725 696639672
954771228 413899653
918221474 402568003
692790933 974677541
736249062 173934652
422017526 328069801
989628471 846077965
642617040 909903997
86388152 27777404
665805324 686122176
687094088 593173397
504802077 263582196
803647248 485069851
532336266 123095247
168544277 597957334
330726229 829053366
688478406 136163831
515800905 478145333
25779486 124701640
200567818 594541587
426903957 327950690
579239569 448319140
391284748 95107281
155226134 371752610
153128179 886898237
607263755 844845093
385312566 843962954
502763397 605179801
813808524 770723147
364502795 336798984
520033601 585892942
105841482 963551714
310918042 402505369
280347112 386670494
298176202 157000296
610842059 992265419
592223648 564225716
417527027 456256975
206395864 471941280
132284344 221074818
988610680 848307117
57263137 407818206
111440331 824933137
856996892 258922782
45222653 541546242
948608652 290972481
202451119 535123016
403387711 5457448
757823971 529549708
485651981 975964503
570352566 852092784
621755749 811365234
120646478 553870885
508988796 877239377
6689950 765717949
738850657 305561952
464486104 529795236
881359965 505922887
824862890 765577928
994031730 987442490
500049199 328384456
810416013 334764628
701807666 855808791
327555162 775217518
436384070 569814464
396223314 825566384
696031646 239825422
496704252 423218244
134964700 497358386
736950594 543798409
44422568 409392946
875534615 812730564
341518374 976693911
923553906 106370368
256357802 121907556
41292405 744959640
836513086 692576526
102140595 114589300
112963395 393749396
636153692 124817444
818990523 919636118
259157218 398773357
536731435 429563807
323460463 667888926
488942623 367872275
219042625 167371022
110878865 754335161
205441572 294071019
400681810 181948887
802085038 589742276
136053931 219145250
753494060 648153869
501995883 760768850
267648798 364160060
656086274 464390470
850385419 556680898
26526643 410065175
899054017 609485672
469756619 714364286
412786782 983991145
478943179 280680150
788100777 548864914
162261452 206192294
161424217 654949096
966204179 179777392
201662071 572887943
106209781 976409964
913284400 282544277
386524723 44421849
752025181 913193736
270286847 533570794
456733321 250920775
213728972 436722078
550616430 638439505
258466757 558222142
514110313 32211831
679097330 64099174
881286309 879497756
550524429 616930727
851673315 687304864
287429887 215463303
822776314 411865580
917078617 979880698
451750501 997126136
710913118 521767430
45546552 73685869
287436255 661162201
174614600 741529865
328066906 69175649
223703920 705783588
179814297 907462140
434045664 486244086
135869163 156083189
219658730 493873990
63466019 727951655
680569731 526823516
476624958 280981143
514079880 475965647
786426794 722689638
733666120 193485500
648769445 291489429
225886395 688996570
927421454 515817253
968125685 326100297
785980284 150505378
301352860 681548146
866809523 374778294
509257435 369538153
16556538 116940352
524972708 216063423
849656943 520514400
478941230 189699248
920060549 292450890
255974655 536395916
886881761 169497196
562479450 556778146
165679267 491589066
815431727 815051367
490846662 197861719
248776353 824403558
715236307 52700537
704561202 987608394
432834584 851004522
969538547 822184918
418555957 950900533
690309798 748112102
270110279 949583595
403410642 108786355
960199306 481827016
43165837 564664420
319277685 673338584
111767621 119011041
873280451 152764533
893021924 694819521
427205821 925329251
891808272 200093501
4829576 797280329
911448707 727803834
520160618 796656289
396646477 881329239
566358071 414874183
22508558 391828888
579457324 708030038
250703390 560832656
829708127 580596802
798609611 580431350
521256831 541827070
74579387 7105689
963645461 632305366
546283256 617579431
839182155 381339318
696725943 653577232
834554001 555563163
723520384 428350142
627958749 515466496
933606146 749125275
329478418 542987506
294544307 749858663
565089281 865219137
159877808 640887633
266764751 620062410
586040616 312130277
449968081 768806729
288435425 796481108
655289869 338614206
985187520 477109950
957417375 503284060
768637939 591874849
940746578 712666166
637270508 261697619
634218009 929047715
405900465 674920148
594868692 946169074
940823997 558668327
242018529 759016874
561491499 979006404
870106172 192680682
71282535 448835568
442393444 28083307
17669425 119498788
536252659 263654736
535573836 481386061
561353812 357169922
803509600 495615305
892440338 322984422
723132576 74619986
51035304 654581969
466760906 881336732
321713172 162801063
173595303 328900655
863937595 113898452
198824484 945206377
10913036 607258142
320150003 526895078
195494229 292664272
290762098 25127565
228527172 605177121
946410514 382914305
285769918 557150849
200271629 526645362
680354333 230823224
249775366 518381430
909126277 64483140
415729852 607864498
940225362 914354721
812907269 85509132
48897253 668918979
585026902 820509714
617272933 33695156
308994672 283864792
577244776 269790036
555611550 833735348
401615655 584763413
361538561 266780045
266065449 955733250
313183012 495550979
732617572 946315252
664359365 565352997
671840877 636970705
615832601 281305768
268925229 214391923
523590761 889791657
45367637 311730870
650828995 240784442
124187073 794802796
712010095 727641416
412665963 256707821
525238274 915556786
674637412 689785356
290094853 313191636
816245411 763293245
799628172 4386443
631549203 984470194
824702009 331932121
499091923 7481985
798992886 617446716
599148003 643689556
2499430 778470762
146117246 143895465
583212083 599405778
184409155 507249501
295615970 152930799
1340436 909190991
5389669 865565349
328759219 134917934
872869751 984254386
783460483 708045374
157857250 867483579
685685637 813398340
943269159 686516883
38928214 910988441
357301209 624654277
574293118 850209411
725285164 596307715
559657347 920774415
389911791 988959155
972680845 461309678
110050231 661089468
143108177 141657519
689160697 888849403
189570693 566354383
83849963 438384974
746908727 530563312
142603127 125059859
618563209 442036532
515350460 460815933
704363054 724109948
500316325 46202712
602472504 936675878
644000560 343674496
973271075 137713182
632134961 563532122
536003482 476015372
999796101 719880106
386230554 995460567
659599373 836630678
367226443 328087304
528494768 723436540
883713809 45776410
835056682 952540494
717085983 762016975
265922123 9527368
730485557 592517868
106299551 121036580
468079762 317180465
241576959 108157458
844712930 981985071
218024255 597817590
291543590 727655360
861456284 634518784
746865418 258056301
13916746 457780592
895735838 367302832
583935217 105745103
983758542 174725608
451973685 190604056
26308283 686858023
344992616 438710995
323892183 689019916
19969008 3555425
797826981 747115720
929371198 783941552
364227016 300186536
918738939 773820153
216159975 925464222
186818255 750620537
912740863 853375264
863907568 612652314
891837280 51341932
945889659 386959475
529789082 557025634
694099716 355661477
362157759 563134836
542947674 923281854
220368802 122212520
803049233 94608600
720007148 390216963
442483586 305068362
506596429 210795338
998521928 57795257
262573721 25118826
237177569 355447895
128384146 527818945
981616819 755094413
210468236 184898546
885221576 956779798
562350452 894630118
1535058 674225603
821380981 312255109
377425339 831054083
370878233 307882325
400639648 799792837
513722430 946036340
562249110 98864748
837520451 295385671
599256408 381579919
681845862 7592447
849307966 918617661
243331846 655174896
122479872 920586310
416242112 199966387
132810162 457174481
768302672 958986774
186645923 511396285
193070650 766159684
232141552 94743719
190230552 479544783
505937721 661730616
835546169 132001734
679311017 791791889
568607657 342371814
948044232 910929457
458544745 195020032
12078081 682275118
200806351 137607740
571264412 379204222
479723195 664182388
837925211 830513773
143219291 713386644
400040447 688858092
726273 611750746
104003325 919436561
748235252 352952314
660957130 793237464
579245940 11354565
749530444 686009103
627044577 173249291
861551551 840156934
959943325 772311148
658356481 282195594
531050852 396619385
201443303 163785907
339314849 144322799
183176375 68430026
178469052 883603650
587393955 730953466
285723907 881274728
916007690 570139300
800660686 128330493
244523420 486935655
638645504 443143168
433999489 410475400
822400239 853008773
977231924 254076007
924453997 877067753
322410305 615704223
98489500 867968821
110747255 220767869
24548809 230924781
426678333 249797595
158382948 658951479
880513521 424513225
835733181 728191894
868653692 680502369
947768915 425834844
954035434 802961245
653478055 204252292
465750957 22536074
336206923 562227300
866191832 341996337
911330451 273311139
251506217 79982049
601364993 611845453
102493130 5325897
720881882 587501203
182918072 448374552
29776111 605932846
592749961 478901560
687391217 755371042
890862078 382440728
73891864 905486913
211711691 10569995
461370406 939936362
988906735 506346742
22587633 840327713
19978232 448495273
706888169 24164817
923519330 93552375
701594811 59007919
634682872 433460880
95149683 981732199
114761310 103281418
648845522 682620283
305504596 272691783
694006367 961637820
294157777 210942624
645655406 397433969
25093173 408120960
846637244 209245300
758309883 156740584
109346043 431566277
227321823 598451808
793251316 363961948
537302991 319226198
414932433 932535478
455247279 913735130
814217012 857623102
437301404 219642367
316894448 15405291
350990 953483611
613397352 202851027
222971487 375319179
451566964 504588488
529811086 862792758
602269149 102626982
984169033 141250630
988223890 331068248
571283461 309354993
445812412 488274047
901316448 735279595
352348553 469115883
802907359 335423894
245554748 25898487
659248110 882728194
820914634 641742322
827300788 250474988
429573554 648087366
469752473 469599499
258393854 678224322
454019733 658350627
427537856 976751238
157258556 418434493
833152551 449813870
594826815 639065032
937043298 352865102
462894706 525476091
306573939 228301683
314647416 637187501
923199136 249489848
872411409 6006743
829303734 843556484
546870749 466746813
31888814 294608519
943755717 695544431
730325377 256315723
65862288 177206920
436984054 480668153
764467302 312514380
512075057 965564070
282252100 62151026
588354321 689076155
583801644 189088934
913161890 634143821
773980545 199941939
414401705 962404379
947560325 594332864
737607091 333214430
66202956 504695465
937574827 738203154
599209414 860432900
36960926 488106623
203677717 519849523
553221838 655357712
453273501 858647982
708159595 942360108
761583370 746034161
582834066 856920101
244030181 266082820
115762176 135771332
555063884 867909147
538711017 324682814
724398812 921000345
539575989 239532020
780219887 676200637
131711231 149012825
508799106 171184951
578356707 727368793
171885868 969298462
578705618 734093554
521269169 194807947
1585135 372185050
491486418 429780008
644531698 863852415
705814614 133342910
286056062 974268584
69136232 883827645
28252594 420891165
683021886 306095623
409827339 391639948
330215649 968833757
828996798 22158052
541897061 739753868
184700251 224617853
319698821 794484330
773273050 602468654
567630223 555196400
64590046 351542136
340003488 893142028
980906274 703084591
328342791 744307412
182990417 105942758
764071923 918476374
732543237 862553225
128578924 372389559
9082128 411778037
992046646 925163906
5104965 710056274
356443238 837572488
840846793 774066101
993243834 755181347
345779297 98011662
893657053 644835142
677765256 220755295
292676663 160871294
671290455 564569264
873828039 231247158
593457993 481465961
803657045 706333300
744026135 929196653
642809473 635096737
571417294 181382942
768098054 184026773
670330823 670560831
668304959 740357899
371393645 773570513
546640289 987485574
515353819 968763547
525079339 467936888
185795315 697694709
992941958 838957787
745280161 372155384
792235247 368375624
575056076 20644367
550243635 836998390
458462293 447304542
34085590 10304205
884880522 458190895
101994074 173339735
218253315 809126650
597853848 677643587
245208188 388473763
659831977 701997899
228666551 286695495
44964836 481300395
212968956 936048620
320187685 271002623
943434306 612548155
349671920 160466275
659237898 188684066
311683004 835984502
645844554 544827906
734949837 246726625
61245804 661166715
763249579 305559093
679808877 543692381
434534312 656993110
365108341 991546751
128685377 993525156
869241983 36907724
307323012 208766714
875795023 465025256
280110414 552311735
994575247 940677329
857266010 291872909
493717385 85036573
985003050 704228851
408296476 655192404
494872176 701317488
535913610 677520487
887590471 891989389
464782203 431665781
545932706 551242801
187784251 537097834
987570505 506606231
931325009 930819235
140215967 57077153
703798534 952408676
484033012 397517365
238879265 109707783
111120412 339168683
646884364 14683566
358214382 279771692
620784350 622899045
41394256 723794869
443889362 245073422
806400010 476505747
315836913 334201703
451523734 650661068
529347823 665331584
847165317 587352075
154737065 906211913
697684638 695766996
398053571 21532452
82809763 279503322
875696224 355360690
807517451 394370209
336462620 73613867
117537477 133527741
66887896 326555129
490024464 287097340
224884377 153515491
342062342 264622049
470297557 989717028
218286223 769142519
63042473 949723820
659016072 121194223
704239294 388909578
300097567 356099953
396423067 91881672
636022457 294559318
319350431 569918338
521750806 903271809
608164913 287507323
923594862 581495765
562528136 669440266
196655674 424935751
249557319 905871532
508996596 159942818
352208631 95060550
407534271 4813092
622010771 541225405
24600855 341100556
765742054 528920558
110054610 326000731
707608130 520767724
411072897 65688268
682403420 967791591
596736361 565695411
617853745 304956588
53188751 617335274
472576976 195452668
589307775 603624514
950688599 734799873
118948529 889616099
822916986 28607309
679164612 105039536
804361769 405308212
634379584 977085368
192475717 304974974
75473501 257185385
582819357 460197831
745789971 385638991
15721761 848264586
372303057 264708932
513311914 623697750
132779065 614086379
520694081 596191423
126889185 456888556
481691392 127619586
567795957 593916298
703033092 232684124
221414046 590291079
222289765 556830667
197097609 130594296
38662176 966419656
632904982 179481899
77527783 256011935
713411273 889104004
505566504 39840547
230081299 78081355
408418369 538670470
91947421 701451245
918607747 238201757
574454623 79623776
710539494 510553024
572387588 578471299
806662968 695330077
294855960 38186616
13605667 898666216
833495913 26017932
982517584 16614627
986095683 861839324
495814503 268427625
59808632 185531747
774406486 681515896
740170754 898549171
637735410 23737022
686567873 262558228
307767181 800468819
697733843 163995379
497458086 181064173
862633697 711337482
187743175 509416568
998110535 439512648
305131068 240950510
580831929 913417630
797319804 962092399
848641413 700105940
767194027 214421004
690828637 582222138
408691911 972379038
719033670 983317020
619620907 707122727
809109192 271988784
624107515 145114194
768910292 48823301
734561065 151072562
106434733 13499396
796118392 71387931
742077070 411790025
680007928 272094243
451877301 718606469
74523397 246653789
809771416 555946289
784875234 356241848
934996437 857983432
77626454 85989045
657457676 145731003
48080524 878395452
934895470 109476325
627221570 395126108
850035370 138868581
336291243 120775641
9884921 98706598
830425349 995253253
20049574 601713058
184646407 480979391
389329406 421549397
989104380 500709722
361395399 587009119
78859311 949095348
483890791 947283989
617868156 807895117
189183483 769835043
286042970 99772624
134953377 281423715
776181243 556269848
497542077 647319007
672125484 308743646
738139429 906329841
370986487 668919038
998393904 943367844
469643175 749769492
292632208 339861868
29111733 577545109
159001183 797912031
992819271 372001191
652928666 877982180
281878657 334181845
213544696 152301021
352659621 604205917
673655063 150054108
899288717 201717427
748396995 29740786
609758016 502347955
899689092 912104099
478663453 837117044
145957665 34245427
579516477 550911353
907851617 748886799
43666659 152658931
15833451 687966167
263984166 857041191
519112558 466347026
286867097 170747032
740246562 414948159
48308171 985472472
923818489 621879679
435514974 732221498
687422126 636476301
659110391 640153484
630584708 136858479
71970685 459936085
545383652 606777722
96643897 868507161
747149211 182779643
637186194 656015068
33286587 150529572
156638099 741976148
289203068 114072213
459339068 868291227
82601231 875750637
157881254 974501385
490807329 524487535
651266901 654374138
499591768 385673905
769016582 844928375
96798988 603811769
624854427 632721289
470676788 308992274
741935472 547655754
69350791 469797107
402360043 247448489
152812702 404425096
580898822 548151124
670710284 61831323
740875918 90214721
963739993 325843026
231514553 953318655
307892425 515688446
670954413 137289843
617996301 529502358
500002095 939499851
865518253 434623535
351212789 261126010
27780897 230672308
686145222 23588580
373800487 760810528
109381329 811942449
998793364 440634061
292330872 451571253
271959157 928125340
386399980 314230629
832613870 959730704
485867471 143611342
933353817 511249144
618847353 895156208
390697163 642746383
12863051 193419401
20045781 209117270
3380001 852368995
195151055 662636770
347755326 130701790
253856707 996741386
26532706 674117978
820396739 722781324
92357469 961059740
504237811 613451725
256520366 187308668
369330958 393407626
664818961 768355534
838436653 891758227
434177505 349000922
209041756 16241061
316541929 615592169
585021887 388415600
94698020 110453151
639124277 795505177
828502798 436884484
749939817 418443717
241450697 661079254
904030773 379660207
483074533 895918044
329967841 79798905
639256091 745531306
582761914 119703432
730043961 777258978
128572787 280233388
294648016 616050679
412350291 346605249
325936218 255055519
855890487 586921279
575190625 169601236
685002593 117216334
798361178 212462220
660347236 893835368
696579683 361043053
973800019 139991759
379418254 434972378
219034378 62653995
891569608 475024031
894669727 650747071
477214162 238799208
126123497 224804220
704447862 82912736
288612546 289656639
228587227 837302755
669448206 787041463
34215429 995563622
489383490 563821946
198287779 765990956
696343482 515944018
572971523 214321279
638157082 309717935
482735880 504077822
70788385 446473401
119651955 961398088
926362790 503246518
382498293 958868454
844818482 299432426
64053548 902747977
647868324 206827271
320728557 257310455
215467430 838135756
646245953 774097498
45903788 823679487
840993469 399766443
732388474 849238774
488285990 967924181
262057242 187671010
183215875 503538005
320735818 963445760
980313383 634259648
215647688 876521015
150871843 402197905
997132444 298035627
858335224 934222983
117813202 661238637
587638349 84347063
520790188 920823152
549194814 3709896
41591800 937648716
942221881 680289622
526592693 91103653
468321040 16407587
716333751 613176392
568261198 975753044
194600399 296735119
951052150 236124447
896674317 491559865
17172254 610194791
332030772 960633751
766016161 622343154
420750504 593565329
559255426 816271838
913733585 224848931
661947579 905293563
149313596 106893701
542648 225069570
674014537 93790719
654601958 557101365
386653016 48031500
344868031 758654932
880816765 379833311
399035628 651937465
759538348 303854292
725113400 261149959
922533720 495348702
674100069 77317080
375559636 981866226
6382795 156789804
484032463 538266407
10704174 567175479
130705000 545695860
1371883 949362799
739051111 388265705
766815648 715511893
185230501 204134880
376017910 791862165
334458395 45026719
966227024 182955366
423221507 441716135
358273409 82766374
268594973 275240032
411485563 4579593
952582853 817374235
502975869 513180186
539024687 522118712
229751979 350233490
18740172 130362703
655114749 584190517
772641109 289248036
656021829 774918974
87441187 170952802
41678829 178730052
807036348 40042060
336823089 503422856
452069899 506905205
392078006 407985711
44053100 868759053
764686655 713097267
464293816 208660549
875046457 743226236
243540258 642244448
263568310 558497543
711279645 464119290
86748164 618379751
223546984 327452996
19277139 829985809
291544131 50242776
991536591 258059103
632693651 532466683
635512891 73569995
767516272 811970736
758521740 472544023
638373091 675948913
163212332 806271434
251318849 863202120
176539106 899295316
136957493 113632078
839059384 929434394
12461822 185024142
837496340 579705610
778048288 785123366
802354942 708119594
177565001 258926842
89146061 904082058
234496515 325269768
886395256 526919554
245616143 532867624
801879423 229913990
178589646 827289998
282443003 819616790
811996350 401528627
1655351 59602723
359356948 858695071
780923314 274221031
437103313 806145370
102704893 856032639
952037641 96226840
58857286 415107252
152520327 430490566
198201149 255668661
420760767 618670863
569391947 14154686
40434038 782683565
136795123 640238883
244056060 519038042
942063300 214591333
604862946 843794732
408658031 71561923
235409869 900125709
121633391 859008470
935441016 411190048
10297119 770682011
856261604 212403993
177480656 508392743
296640260 671556091
785800387 547882301
232516494 311722064
687455440 871917539
800768600 472856990
351478649 801027447
818857848 904409078
280251367 203100534
419597816 768919669
241950379 615011762
51737095 920364865
298084530 923731747
2804223 371064244
